Manipulação de dados e Junção Relacional
…
---

## Exibição vs. resumo de dados

.panelset[

.panel[.panel-name[Saída]

.pull-left[

```
## # A tibble: 87 x 3
##   name           height  mass
##   <chr>           <int> <dbl>
## 1 Luke Skywalker    172    77
## 2 C-3PO             167    75
## 3 R2-D2              96    32
## 4 Darth Vader       202   136
## 5 Leia Organa       150    49
## 6 Owen Lars         178   120
## # ... with 81 more rows
```
…
---

## Selecione uma única coluna

Ver apenas `lead_time` (número de dias entre a reserva e a data de chegada):

```r
select(hotels, lead_time)
```

```
## # A tibble: 119,390 x 1
##   lead_time
##       <dbl>
## 1       342
## 2       737
## 3         7
## 4        13
## 5        14
## 6        14
## # ... with 119,384 more rows
```
…
---

## Select a single column

.pull-left[

```r
select( 
  hotels, 
  lead_time
  )
```

```
## # A tibble: 119,390 x 1
##   lead_time
##       <dbl>
## 1       342
## 2       737
## 3         7
## 4        13
## 5        14
## 6        14
## # ... with 119,384 more rows
```
…
---

.tip[
dplyr funções precisam de um data frame como entrada e entregam um data frame.
]

```r
select(hotels, lead_time)
```

```
## # A tibble: 119,390 x 1
##   lead_time
##       <dbl>
## 1       342
## 2       737
## 3         7
## 4        13
## 5        14
## 6        14
## # ... with 119,384 more rows
```
…
## Selecione várias colunas

Veja apenas o tipo de `hotel` e o `lead_time`:

--

.pull-left[

```r
select(hotels, hotel, lead_time)
```

```
## # A tibble: 119,390 x 2
##   hotel        lead_time
##   <chr>            <dbl>
## 1 Resort Hotel       342
## 2 Resort Hotel       737
## 3 Resort Hotel         7
## 4 Resort Hotel        13
## 5 Resort Hotel        14
## 6 Resort Hotel        14
## # ... with 119,384 more rows
```
…
---

## Data wrangling, passo-a-passo

.pull-left[
Selecione:

```r
hotels %>%
  select(hotel, lead_time)
```

```
## # A tibble: 119,390 x 2
##   hotel        lead_time
##   <chr>            <dbl>
## 1 Resort Hotel       342
## 2 Resort Hotel       737
## 3 Resort Hotel         7
## 4 Resort Hotel        13
## 5 Resort Hotel        14
## 6 Resort Hotel        14
## # ... with 119,384 more rows
```
]

--
.pull-right[
Selecione, depois organize:

```r
hotels %>%
  select(hotel, lead_time) %>%
  arrange(desc(lead_time))
```

```
## # A tibble: 119,390 x 2
##   hotel        lead_time
##   <chr>            <dbl>
## 1 Resort Hotel       737
## 2 Resort Hotel       709
## 3 City Hotel         629
## 4 City Hotel         629
## 5 City Hotel         629
## 6 City Hotel         629
## # ... with 119,384 more rows
```
…
.pull-left[
- Comece com o dataframe `hotels`, e utilize a função `select()`,
]
.pull-right[
.small[

```r
*hotels %>%
  select(hotel, lead_time) %>%
  arrange(desc(lead_time))
```

```
## # A tibble: 119,390 x 2
##   hotel        lead_time
##   <chr>            <dbl>
## 1 Resort Hotel       737
## 2 Resort Hotel       709
## 3 City Hotel         629
## 4 City Hotel         629
## 5 City Hotel         629
## 6 City Hotel         629
## # ... with 119,384 more rows
```
…
.pull-left[
- Comece com o dataframe `hotels`, e utilize a função `select()`,
- e então, selecione `hotel` and `lead_time`,
]
.pull-right[
.small[

```r
hotels %>%
* select(hotel, lead_time) %>%
  arrange(desc(lead_time))
```

```
## # A tibble: 119,390 x 2
##   hotel        lead_time
##   <chr>            <dbl>
## 1 Resort Hotel       737
## 2 Resort Hotel       709
## 3 City Hotel         629
## 4 City Hotel         629
## 5 City Hotel         629
## 6 City Hotel         629
## # ... with 119,384 more rows
```
…
```r
hotels %>%
  select(hotel, lead_time) %>% 
* arrange(desc(lead_time))
```

```
## # A tibble: 119,390 x 2
##   hotel        lead_time
##   <chr>            <dbl>
## 1 Resort Hotel       737
## 2 Resort Hotel       709
## 3 City Hotel         629
## 4 City Hotel         629
## 5 City Hotel         629
## 6 City Hotel         629
## # ... with 119,384 more rows
```
…
---

## Entradas

.panelset[

.panel[.panel-name[profissões]

```r
professions
```

```
## # A tibble: 10 x 2
##   name              profession           
##   <chr>             <chr>                
## 1 Ada Lovelace      Mathematician        
## 2 Marie Curie       Physicist and Chemist
## 3 Janaki Ammal      Botanist             
## 4 Chien-Shiung Wu   Physicist            
## 5 Katherine Johnson Mathematician        
## 6 Rosalind Franklin Chemist              
## # ... with 4 more rows
```
]

.panel[.panel-name[datas]

```r
dates
```

```
## # A tibble: 8 x 3
##   name              birth_year death_year
##   <chr>                  <dbl>      <dbl>
## 1 Janaki Ammal            1897       1984
## 2 Chien-Shiung Wu         1912       1997
## 3 Katherine Johnson       1918       2020
## 4 Rosalind Franklin       1920       1958
## 5 Vera Rubin              1928       2016
## 6 Gladys West             1930         NA
## # ... with 2 more rows
```
]

.panel[.panel-name[trabalhos]

```r
works
```

```
## # A tibble: 9 x 2
##   name           known_for                                       
##   <chr>          <chr>                                           
## 1 Ada Lovelace   first computer algorithm                        
## 2 Marie Curie    theory of radioactivity,  discovery of elements~
## 3 Janaki Ammal   hybrid species, biodiversity protection         
## 4 Chien-Shiung ~ confim and refine theory of radioactive beta de~
## 5 Katherine Joh~ calculations of orbital mechanics critical to s~
## 6 Vera Rubin     existence of dark matter                        
## # ... with 3 more rows
```
]

]

---

## Resultado desejado

```
## # A tibble: 10 x 5
##   name     profession   birth_year death_year known_for          
##   <chr>    <chr>             <dbl>      <dbl> <chr>              
## 1 Ada Lov~ Mathematici~         NA         NA first computer alg~
## 2 Marie C~ Physicist a~         NA         NA theory of radioact~
## 3 Janaki ~ Botanist           1897       1984 hybrid species, bi~
## 4 Chien-S~ Physicist          1912       1997 confim and refine ~
## 5 Katheri~ Mathematici~       1918       2020 calculations of or~
## 6 Rosalin~ Chemist            1920       1958 <NA>               
## # ... with 4 more rows
```
…
---

## `left_join()`

```r
professions %>%
* left_join(dates)
```

```
## # A tibble: 10 x 4
##   name              profession            birth_year death_year
##   <chr>             <chr>                      <dbl>      <dbl>
## 1 Ada Lovelace      Mathematician                 NA         NA
## 2 Marie Curie       Physicist and Chemist         NA         NA
## 3 Janaki Ammal      Botanist                    1897       1984
## 4 Chien-Shiung Wu   Physicist                   1912       1997
## 5 Katherine Johnson Mathematician               1918       2020
## 6 Rosalind Franklin Chemist                     1920       1958
## # ... with 4 more rows
```
…
---

## `right_join()`

```r
professions %>%
* right_join(dates)
```

```
## # A tibble: 8 x 4
##   name              profession    birth_year death_year
##   <chr>             <chr>              <dbl>      <dbl>
## 1 Janaki Ammal      Botanist            1897       1984
## 2 Chien-Shiung Wu   Physicist           1912       1997
## 3 Katherine Johnson Mathematician       1918       2020
## 4 Rosalind Franklin Chemist             1920       1958
## 5 Vera Rubin        Astronomer          1928       2016
## 6 Gladys West       Mathematician       1930         NA
## # ... with 2 more rows
```
…
---

## `full_join()`

```r
dates %>%
* full_join(works)
```

```
## # A tibble: 10 x 4
##   name       birth_year death_year known_for                     
##   <chr>           <dbl>      <dbl> <chr>                         
## 1 Janaki Am~       1897       1984 hybrid species, biodiversity ~
## 2 Chien-Shi~       1912       1997 confim and refine theory of r~
## 3 Katherine~       1918       2020 calculations of orbital mecha~
## 4 Rosalind ~       1920       1958 <NA>                          
## 5 Vera Rubin       1928       2016 existence of dark matter      
## 6 Gladys We~       1930         NA mathematical modeling of the ~
## # ... with 4 more rows
```
…
---

## `inner_join()`

```r
dates %>%
* inner_join(works)
```

```
## # A tibble: 7 x 4
##   name        birth_year death_year known_for                    
##   <chr>            <dbl>      <dbl> <chr>                        
## 1 Janaki Amm~       1897       1984 hybrid species, biodiversity~
## 2 Chien-Shiu~       1912       1997 confim and refine theory of ~
## 3 Katherine ~       1918       2020 calculations of orbital mech~
## 4 Vera Rubin        1928       2016 existence of dark matter     
## 5 Gladys West       1930         NA mathematical modeling of the~
## 6 Flossie Wo~       1947         NA first scientist to clone HIV~
## # ... with 1 more row
```
…
---

## `semi_join()`

```r
dates %>%
* semi_join(works)
```

```
## # A tibble: 7 x 3
##   name               birth_year death_year
##   <chr>                   <dbl>      <dbl>
## 1 Janaki Ammal             1897       1984
## 2 Chien-Shiung Wu          1912       1997
## 3 Katherine Johnson        1918       2020
## 4 Vera Rubin               1928       2016
## 5 Gladys West              1930         NA
## 6 Flossie Wong-Staal       1947         NA
## # ... with 1 more row
```
…
---

## Realizando a junção dos dados

```r
professions %>%
  left_join(dates) %>%
  left_join(works)
```

```
## # A tibble: 10 x 5
##   name     profession   birth_year death_year known_for          
##   <chr>    <chr>             <dbl>      <dbl> <chr>              
## 1 Ada Lov~ Mathematici~         NA         NA first computer alg~
## 2 Marie C~ Physicist a~         NA         NA theory of radioact~
## 3 Janaki ~ Botanist           1897       1984 hybrid species, bi~
## 4 Chien-S~ Physicist          1912       1997 confim and refine ~
## 5 Katheri~ Mathematici~       1918       2020 calculations of or~
## 6 Rosalin~ Chemist            1920       1958 <NA>               
## # ... with 4 more rows
```
…
